<?xml version="1.0" encoding="UTF-8"?>
<session version="1.0">
<refactoring comment="Rename resource &apos;predefMacro/macros&apos; to &apos;macros.c&apos;" description="Rename resource &apos;macros&apos;" flags="7" id="org.eclipse.ltk.core.refactoring.rename.resource" input="macros" name="macros.c" stamp="1482019097611" updateReferences="true"/>
</session>